{
  "name": "system",
  "$schema": "../../node_modules/nx/schemas/project-schema.json",
  "sourceRoot": "libs/backend/system/src",
  "projectType": "library",
  "targets": {
    "lint": {
      "executor": "@nrwl/linter:eslint",
      "outputs": [
        "{options.outputFile}"
      ],
      "options": {
        "lintFilePatterns": [
          "libs/backend/system/**/*.ts"
        ]
      }
    },
    "test": {
      "executor": "@nrwl/jest:jest",
      "outputs": [
        "{workspaceRoot}/coverage/{projectRoot}"
      ],
      "options": {
        "jestConfig": "libs/backend/system/jest.config.ts",
        "passWithNoTests": true
      },
      "configurations": {
        "ci": {
          "ci": true,
          "codeCoverage": true
        }
      }
    }
  },
  "tags": []
}
