{
  "name": "fe-admin",
  "$schema": "../node_modules/nx/schemas/project-schema.json",
  "projectType": "application",
  "sourceRoot": "apps/frontend/fe-admin/src",
  "prefix": "app",
  "targets": {
    "build": {
      "executor": "@nrwl/angular:webpack-browser",
      "outputs": [
        "{options.outputPath}"
      ],
      "options": {
        "outputPath": "dist/apps/frontend/fe-admin",
        "index": "apps/frontend/fe-admin/src/index.html",
        "main": "apps/frontend/fe-admin/src/main.ts",
        "polyfills": [
          "zone.js"
        ],
        "tsConfig": "apps/frontend/fe-admin/tsconfig.app.json",
        "inlineStyleLanguage": "scss",
        "assets": [
          "apps/frontend/fe-admin/src/favicon.ico",
          "apps/frontend/fe-admin/src/assets"
        ],
        "styles": [
          "apps/frontend/fe-admin/src/styles.scss"
        ],
        "scripts": [],
        "customWebpackConfig": {
          "path": "apps/frontend/fe-admin/webpack.config.js"
        }
      },
      "configurations": {
        "production": {
          "budgets": [
            {
              "type": "initial",
              "maximumWarning": "500kb",
              "maximumError": "1mb"
            },
            {
              "type": "anyComponentStyle",
              "maximumWarning": "2kb",
              "maximumError": "4kb"
            }
          ],
          "outputHashing": "all",
          "customWebpackConfig": {
            "path": "apps/frontend/fe-admin/webpack.prod.config.js"
          }
        },
        "development": {
          "buildOptimizer": false,
          "optimization": false,
          "vendorChunk": true,
          "extractLicenses": false,
          "sourceMap": true,
          "namedChunks": true
        }
      },
      "defaultConfiguration": "production"
    },
    "serve": {
      "executor": "@nrwl/angular:webpack-dev-server",
      "configurations": {
        "production": {
          "browserTarget": "fe-admin:build:production"
        },
        "development": {
          "browserTarget": "fe-admin:build:development"
        }
      },
      "defaultConfiguration": "development",
      "options": {
        "port": 4204,
        "publicHost": "http://localhost:4204"
      }
    },
    "extract-i18n": {
      "executor": "@angular-devkit/build-angular:extract-i18n",
      "options": {
        "browserTarget": "fe-admin:build"
      }
    },
    "lint": {
      "executor": "@nrwl/linter:eslint",
      "outputs": [
        "{options.outputFile}"
      ],
      "options": {
        "lintFilePatterns": [
          "apps/frontend/fe-admin/**/*.ts",
          "apps/frontend/fe-admin/**/*.html"
        ]
      }
    },
    "test": {
      "executor": "@nrwl/jest:jest",
      "outputs": [
        "{workspaceRoot}/coverage/{projectRoot}"
      ],
      "options": {
        "jestConfig": "apps/frontend/fe-admin/jest.config.ts",
        "passWithNoTests": true
      },
      "configurations": {
        "ci": {
          "ci": true,
          "codeCoverage": true
        }
      }
    },
    "serve-static": {
      "executor": "@nrwl/angular:file-server",
      "defaultConfiguration": "development",
      "options": {
        "buildTarget": "fe-admin:build",
        "port": 4204
      },
      "configurations": {
        "development": {
          "buildTarget": "fe-admin:build:development"
        },
        "production": {
          "buildTarget": "fe-admin:build:production"
        }
      }
    }
  },
  "tags": []
}
